%!PS-Adobe-3.0
%%Title: client.py
%%For: htc36
%%Creator: NVIM v0.4.0-1381-g4aabe4a0d
%%CreationDate: Sun Aug 18 22:38:24 2019
%%DocumentData: Clean8Bit
%%Orientation: Portrait
%%Pages: (atend)
%%PageOrder: Ascend
%%BoundingBox: 59 49 564 800
%%DocumentMedia: A4 595 842 0 () ()
%%DocumentNeededResources: font Courier
%%+ font Courier-Bold
%%+ font Courier-Oblique
%%+ font Courier-BoldOblique
%%DocumentSuppliedResources: procset VIM-Prolog 1.4 1
%%+ encoding VIM-latin1 1.0 0
%%Requirements: duplex collate color
%%EndComments
%%BeginDefaults
%%PageResources: font Courier
%%+ font Courier-Bold
%%+ font Courier-Oblique
%%+ font Courier-BoldOblique
%%PageMedia: A4
%%EndDefaults
%%BeginProlog
%%BeginResource: procset VIM-Prolog
%%BeginDocument: /tmp/.mount_nvimCGGNTq/usr/share/nvim/runtime/print/prolog.ps
%!PS-Adobe-3.0 Resource-ProcSet
%%Title: VIM-Prolog
%%Version: 1.4 1
%%EndComments
% Editing of this file is NOT RECOMMENDED.  You run a very good risk of causing
% all PostScript printing from VIM failing if you do.  PostScript is not called
% a write-only language for nothing!
/packedarray where not{userdict begin/setpacking/pop load def/currentpacking
false def end}{pop}ifelse/CP currentpacking def true setpacking
/bd{bind def}bind def/ld{load def}bd/ed{exch def}bd/d/def ld
/db{dict begin}bd/cde{currentdict end}bd
/T true d/F false d
/SO null d/sv{/SO save d}bd/re{SO restore}bd
/L2 systemdict/languagelevel 2 copy known{get exec}{pop pop 1}ifelse 2 ge d
/m/moveto ld/s/show ld /ms{m s}bd /g/setgray ld/r/setrgbcolor ld/sp{showpage}bd
/gs/gsave ld/gr/grestore ld/cp/currentpoint ld
/ul{gs UW setlinewidth cp UO add 2 copy newpath m 3 1 roll add exch lineto
stroke gr}bd
/bg{gs r cp BO add 4 -2 roll rectfill gr}bd
/sl{90 rotate 0 exch translate}bd
L2{
/sspd{mark exch{setpagedevice}stopped cleartomark}bd
/nc{1 db/NumCopies ed cde sspd}bd
/sps{3 db/Orientation ed[3 1 roll]/PageSize ed/ImagingBBox null d cde sspd}bd
/dt{2 db/Tumble ed/Duplex ed cde sspd}bd
/c{1 db/Collate ed cde sspd}bd
}{
/nc{/#copies ed}bd
/sps{statusdict/setpage get exec}bd
/dt{statusdict/settumble 2 copy known{get exec}{pop pop pop}ifelse
statusdict/setduplexmode 2 copy known{get exec}{pop pop pop}ifelse}bd
/c{pop}bd
}ifelse
/ffs{findfont exch scalefont d}bd/sf{setfont}bd
/ref{1 db findfont dup maxlength dict/NFD ed{exch dup/FID ne{exch NFD 3 1 roll
put}{pop pop}ifelse}forall/Encoding findresource dup length 256 eq{NFD/Encoding
3 -1 roll put}{pop}ifelse NFD dup/FontType get 3 ne{/CharStrings}{/CharProcs}
ifelse 2 copy known{2 copy get dup maxlength dict copy[/questiondown/space]{2
copy known{2 copy get 2 index/.notdef 3 -1 roll put pop exit}if pop}forall put
}{pop pop}ifelse dup NFD/FontName 3 -1 roll put NFD definefont pop end}bd
CP setpacking
(\004)cvn{}bd
% vim:ff=unix:
%%EOF
%%EndDocument
%%EndResource
%%BeginResource: encoding VIM-latin1
%%BeginDocument: /tmp/.mount_nvimCGGNTq/usr/share/nvim/runtime/print/latin1.ps
%!PS-Adobe-3.0 Resource-Encoding
%%Title: VIM-latin1
%%Version: 1.0 0
%%EndComments
/VIM-latin1[
/.notdef /.notdef /.notdef /.notdef /.notdef /.notdef /.notdef /.notdef
/.notdef /.notdef /.notdef /.notdef /.notdef /.notdef /.notdef /.notdef
/.notdef /.notdef /.notdef /.notdef /.notdef /.notdef /.notdef /.notdef
/.notdef /.notdef /.notdef /.notdef /.notdef /.notdef /.notdef /.notdef
/space /exclam /quotedbl /numbersign /dollar /percent /ampersand /quotesingle
/parenleft /parenright /asterisk /plus /comma /minus /period /slash
/zero /one /two /three /four /five /six /seven
/eight /nine /colon /semicolon /less /equal /greater /question
/at /A /B /C /D /E /F /G
/H /I /J /K /L /M /N /O
/P /Q /R /S /T /U /V /W
/X /Y /Z /bracketleft /backslash /bracketright /asciicircum /underscore
/grave /a /b /c /d /e /f /g
/h /i /j /k /l /m /n /o
/p /q /r /s /t /u /v /w
/x /y /z /braceleft /bar /braceright /asciitilde /.notdef
/.notdef /.notdef /.notdef /.notdef /.notdef /.notdef /.notdef /.notdef
/.notdef /.notdef /.notdef /.notdef /.notdef /.notdef /.notdef /.notdef
/.notdef /.notdef /.notdef /.notdef /.notdef /.notdef /.notdef /.notdef
/.notdef /.notdef /.notdef /.notdef /.notdef /.notdef /.notdef /.notdef
/space /exclamdown /cent /sterling /currency /yen /brokenbar /section
/dieresis /copyright /ordfeminine /guillemotleft /logicalnot /hyphen /registered /macron
/degree /plusminus /twosuperior /threesuperior /acute /mu /paragraph /periodcentered
/cedilla /onesuperior /ordmasculine /guillemotright /onequarter /onehalf /threequarters /questiondown
/Agrave /Aacute /Acircumflex /Atilde /Adieresis /Aring /AE /Ccedilla
/Egrave /Eacute /Ecircumflex /Edieresis /Igrave /Iacute /Icircumflex /Idieresis
/Eth /Ntilde /Ograve /Oacute /Ocircumflex /Otilde /Odieresis /multiply
/Oslash /Ugrave /Uacute /Ucircumflex /Udieresis /Yacute /Thorn /germandbls
/agrave /aacute /acircumflex /atilde /adieresis /aring /ae /ccedilla
/egrave /eacute /ecircumflex /edieresis /igrave /iacute /icircumflex /idieresis
/eth /ntilde /ograve /oacute /ocircumflex /otilde /odieresis /divide
/oslash /ugrave /uacute /ucircumflex /udieresis /yacute /thorn /ydieresis]
/Encoding defineresource pop
% vim:ff=unix:
%%EOF
%%EndDocument
%%EndResource
%%EndProlog
%%BeginSetup
595 842 0 sps
1 nc
T F dt
T c
%%IncludeResource: font Courier
/_F0 /VIM-latin1 /Courier ref
/F0 10 /_F0 ffs
%%IncludeResource: font Courier-Bold
/_F1 /VIM-latin1 /Courier-Bold ref
/F1 10 /_F1 ffs
%%IncludeResource: font Courier-Oblique
/_F2 /VIM-latin1 /Courier-Oblique ref
/F2 10 /_F2 ffs
%%IncludeResource: font Courier-BoldOblique
/_F3 /VIM-latin1 /Courier-BoldOblique ref
/F3 10 /_F3 ffs
/UO -1 d
/UW 0.5 d
/BO -2.5 d
%%EndSetup
%%Page: 1 1
%%BeginPageSetup
sv
0 g
F0 sf
%%EndPageSetup
F1 sf
(client.py                                                                     Page 1)59.5 792.4 ms
F0 sf
0 0 0.376 r
(import)59.5 772.4 ms
0 g
( socket)s
0 0 0.376 r
(import)59.5 762.4 ms
0 g
( sys)s
0 0 0.376 r
(import)59.5 752.4 ms
0 g
( os.path)s
0 0.498 0.498 r
(def)59.5 732.4 ms
0 g
( )s
F1 sf
0.498 0.498 0 r
(argumentGetter)s
F0 sf
0 g
(\(\):)s
(    )59.5 722.4 ms
0 0.498 0.498 r
(if)s
0 g
( )s
F1 sf
0.498 0.498 0 r
(len)s
F0 sf
0 g
(\(sys.argv\) != )s
0.498 0.125 0.498 r
(4)s
0 g
(:)s
(        )59.5 712.4 ms
F1 sf
0.498 0.498 0 r
(print)s
F0 sf
0 g
(\()s
0.498 0.125 0.498 r
("Sorry incorrect number of arguments")s
0 g
(\))s
(        sys.exit\(\))59.5 702.4 ms
(    ip = sys.argv[)59.5 692.4 ms
0.498 0.125 0.498 r
(1)s
0 g
(])s
(    port = )59.5 682.4 ms
F1 sf
0.498 0.498 0 r
(int)s
F0 sf
0 g
(\(sys.argv[)s
0.498 0.125 0.498 r
(2)s
0 g
(]\))s
(    fileName = sys.argv[)59.5 672.4 ms
0.498 0.125 0.498 r
(3)s
0 g
(])s
(    )59.5 662.4 ms
0 0.498 0.498 r
(return)s
0 g
( ip, port, fileName)s
0 0.498 0.498 r
(def)59.5 632.4 ms
0 g
( )s
F1 sf
0.498 0.498 0 r
(checkIp)s
F0 sf
0 g
(\(ip, port\):)s
(    )59.5 622.4 ms
0 0.498 0.498 r
(try)s
0 g
(:)s
(        portIp = socket.getaddrinfo\(ip, port\)[)59.5 612.4 ms
0.498 0.125 0.498 r
(1)s
0 g
(][-)s
0.498 0.125 0.498 r
(1)s
0 g
(])s
(        )59.5 602.4 ms
F1 sf
0.498 0.498 0 r
(print)s
F0 sf
0 g
(\()s
0.498 0.125 0.498 r
("Correct IP")s
0 g
(\))s
(    )59.5 592.4 ms
0 0.498 0.498 r
(except)s
0 g
(:)s
(        )59.5 582.4 ms
F1 sf
0.498 0.498 0 r
(print)s
F0 sf
0 g
(\()s
0.498 0.125 0.498 r
("Sorry there is an error with the IP address")s
0 g
(\))s
(        sys.exit\(\))59.5 572.4 ms
(    )59.5 562.4 ms
0 0.498 0.498 r
(return)s
0 g
( portIp)s
0 0.498 0.498 r
(def)59.5 542.4 ms
0 g
( )s
F1 sf
0.498 0.498 0 r
(checkPortandfile)s
F0 sf
0 g
(\(port, fileName\):)s
(    )59.5 532.4 ms
0 0.498 0.498 r
(if)s
0 g
( port < )s
0.498 0.125 0.498 r
(1024)s
0 g
( )s
0 0.498 0.498 r
(or)s
0 g
( port > )s
0.498 0.125 0.498 r
(64000)s
0 g
(:)s
(        )59.5 522.4 ms
F1 sf
0.498 0.498 0 r
(print)s
F0 sf
0 g
(\()s
0.498 0.125 0.498 r
("Sorry port number is out of range")s
0 g
(\))s
(        sys.exit\(\))59.5 512.4 ms
(    )59.5 492.4 ms
0 0.498 0.498 r
(if)s
0 g
( os.path.isfile\(fileName\):)s
(        )59.5 482.4 ms
F1 sf
0.498 0.498 0 r
(print)s
F0 sf
0 g
(\()s
0.498 0.125 0.498 r
("Sorry file already exists")s
0 g
(\))s
(        sys.exit\(\))59.5 472.4 ms
0 0.498 0.498 r
(def)59.5 452.4 ms
0 g
( )s
F1 sf
0.498 0.498 0 r
(createConnect)s
F0 sf
0 g
(\(portIp\):)s
(    )59.5 442.4 ms
0 0.498 0.498 r
(try)s
0 g
(:)s
(        s = socket.socket\(socket.AF_INET, socket.SOCK_STREAM\))59.5 432.4 ms
(    )59.5 422.4 ms
0 0.498 0.498 r
(except)s
0 g
(:)s
(        )59.5 412.4 ms
F1 sf
0.498 0.498 0 r
(print)s
F0 sf
0 g
(\()s
0.498 0.125 0.498 r
("Sorry creating socket has failed")s
0 g
(\))s
(    s.settimeout\()59.5 402.4 ms
0.498 0.125 0.498 r
(1)s
0 g
(\))s
(    )59.5 392.4 ms
0 0.498 0.498 r
(try)s
0 g
(:)s
(        s.connect\(portIp\))59.5 382.4 ms
(    )59.5 372.4 ms
0 0.498 0.498 r
(except)s
0 g
(:)s
(        )59.5 362.4 ms
F1 sf
0.498 0.498 0 r
(print)s
F0 sf
0 g
(\()s
0.498 0.125 0.498 r
("Sorry socket has failed to connect")s
0 g
(\))s
(    )59.5 352.4 ms
0 0.498 0.498 r
(return)s
0 g
( s )s
0 0.498 0.498 r
(def)59.5 332.4 ms
0 g
( )s
F1 sf
0.498 0.498 0 r
(makeFileRequest)s
F0 sf
0 g
(\(fileName, s\):)s
(    byteFileName = fileName.encode\()59.5 322.4 ms
0.498 0.125 0.498 r
('UTF-8')s
0 g
(\))s
(    n = )59.5 312.4 ms
F1 sf
0.498 0.498 0 r
(len)s
F0 sf
0 g
(\(byteFileName\)  )s
(    magicNum = )59.5 302.4 ms
0.498 0.125 0.498 r
(0x497e)s
0 g
(    head = )59.5 292.4 ms
F1 sf
0.498 0.498 0 r
(bytearray)s
F0 sf
0 g
(\([magicNum >> )s
0.498 0.125 0.498 r
(8)s
0 g
(, magicNum & )s
0.498 0.125 0.498 r
(0x00FF)s
0 g
(, )s
0.498 0.125 0.498 r
(1)s
0 g
(, n >> )s
0.498 0.125 0.498 r
(8)s
0 g
(, n & )s
0.498 0.125 0.498 r
(0x00FF)s
0 g
(]\))s
(    fileRequest = head + byteFileName)59.5 282.4 ms
(    s.sendall\(fileRequest\))59.5 272.4 ms
0 0.498 0.498 r
(def)59.5 252.4 ms
0 g
( )s
F1 sf
0.498 0.498 0 r
(receiveResponse)s
F0 sf
0 g
(\(s\):)s
(    )59.5 242.4 ms
0 0.498 0.498 r
(try)s
0 g
(: )s
(        head = s.recv\()59.5 232.4 ms
0.498 0.125 0.498 r
(8)s
0 g
(\))s
(    )59.5 222.4 ms
0 0.498 0.498 r
(except)s
0 g
( socket.timeout:)s
(        )59.5 212.4 ms
F1 sf
0.498 0.498 0 r
(print)s
F0 sf
0 g
(\()s
0.498 0.125 0.498 r
("Sorry the socket has timed out")s
0 g
(\))s
(        sys.exit\(\))59.5 202.4 ms
(    )59.5 192.4 ms
0 0.498 0.498 r
(except)s
0 g
(: )s
(        )59.5 182.4 ms
F1 sf
0.498 0.498 0 r
(print)s
F0 sf
0 g
(\()s
0.498 0.125 0.498 r
("Sorry the response from the server is eranious")s
0 g
(\))s
(        sys.exit\(\))59.5 172.4 ms
(    magicNum = \(head[)59.5 152.4 ms
0.498 0.125 0.498 r
(0)s
0 g
(] << )s
0.498 0.125 0.498 r
(8)s
0 g
(\) + head[)s
0.498 0.125 0.498 r
(1)s
0 g
(])s
(    sType = head[)59.5 142.4 ms
0.498 0.125 0.498 r
(2)s
0 g
(])s
(    statusCode = head[)59.5 132.4 ms
0.498 0.125 0.498 r
(3)s
0 g
(])s
(    fileDataLen = getFileDataLen\(head\))59.5 122.4 ms
(    )59.5 112.4 ms
0 0.498 0.498 r
(if)s
0 g
( magicNum != )s
0.498 0.125 0.498 r
(0x497E)s
0 g
( )s
0 0.498 0.498 r
(or)s
0 g
( sType != )s
0.498 0.125 0.498 r
(2)s
0 g
( )s
0 0.498 0.498 r
(or)s
0 g
( \(statusCode != )s
0.498 0.125 0.498 r
(0)s
0 g
( )s
0 0.498 0.498 r
(and)s
0 g
( statusCode != )s
0.498 0.125 0.498 r
(1)s
0 g
(\):)s
(        )59.5 102.4 ms
F1 sf
0.498 0.498 0 r
(print)s
F0 sf
0 g
(\()s
0.498 0.125 0.498 r
("Sorry the file header is eranious")s
0 g
(\))s
(        sys.exit\(\))59.5 92.4 ms
(    )59.5 82.4 ms
0 0.498 0.498 r
(return)s
0 g
( statusCode, fileDataLen)s
0 0.498 0.498 r
(def)59.5 62.4 ms
0 g
( )s
F1 sf
0.498 0.498 0 r
(getFileDataLen)s
F0 sf
0 g
(\(head\):)s
(    first = head[)59.5 52.4 ms
0.498 0.125 0.498 r
(4)s
0 g
(] << )s
0.498 0.125 0.498 r
(24)s
re sp
%%PageTrailer
%%Page: 2 2
%%BeginPageSetup
sv
0 g
F0 sf
%%EndPageSetup
F1 sf
(client.py                                                                     Page 2)59.5 792.4 ms
F0 sf
(    second = head[)59.5 772.4 ms
0.498 0.125 0.498 r
(5)s
0 g
(] << )s
0.498 0.125 0.498 r
(16)s
0 g
(    third = head[)59.5 762.4 ms
0.498 0.125 0.498 r
(6)s
0 g
(] << )s
0.498 0.125 0.498 r
(8)s
0 g
(    fourth = head[)59.5 752.4 ms
0.498 0.125 0.498 r
(7)s
0 g
(])s
(    )59.5 742.4 ms
0 0.498 0.498 r
(return)s
0 g
( first + second + third + fourth)s
0 0.498 0.498 r
(def)59.5 722.4 ms
0 g
( )s
F1 sf
0.498 0.498 0 r
(writeDataResponse)s
F0 sf
0 g
(\(s, statusCode, fileName, fileDataLen\):)s
(    counter = )59.5 712.4 ms
0.498 0.125 0.498 r
(0)s
0 g
(    )59.5 702.4 ms
0 0.498 0.498 r
(if)s
0 g
( statusCode == )s
0.498 0.125 0.498 r
(1)s
0 g
(:)s
(        )59.5 692.4 ms
0 0.498 0.498 r
(with)s
0 g
( )s
F1 sf
0.498 0.498 0 r
(open)s
F0 sf
0 g
(\(fileName, )s
0.498 0.125 0.498 r
('wb')s
0 g
(\) )s
0 0.498 0.498 r
(as)s
0 g
( i:)s
(            )59.5 682.4 ms
0 0.498 0.498 r
(while)s
0 g
( )s
F1 sf
0.498 0.498 0 r
(True)s
F0 sf
0 g
(:)s
(                )59.5 672.4 ms
0 0.498 0.498 r
(try)s
0 g
(:)s
(                    information = s.recv\()59.5 662.4 ms
0.498 0.125 0.498 r
(4096)s
0 g
(\))s
(                )59.5 652.4 ms
0 0.498 0.498 r
(except)s
0 g
( socket.timeout:)s
(                    )59.5 642.4 ms
F1 sf
0.498 0.498 0 r
(print)s
F0 sf
0 g
(\()s
0.498 0.125 0.498 r
("Sory the socket has timed out")s
0 g
(\))s
(                )59.5 632.4 ms
0 0.498 0.498 r
(if)s
0 g
( )s
0 0.498 0.498 r
(not)s
0 g
( information:)s
(                    )59.5 622.4 ms
0 0.498 0.498 r
(break)s
0 g
(                counter += )59.5 612.4 ms
F1 sf
0.498 0.498 0 r
(len)s
F0 sf
0 g
(\(information\))s
(                i.write\(information\))59.5 602.4 ms
(            )59.5 592.4 ms
0 0.498 0.498 r
(if)s
0 g
( counter != fileDataLen:)s
(                os.remove\(fileName\))59.5 582.4 ms
(                s.close\(\))59.5 572.4 ms
(                sys.exit\(\))59.5 562.4 ms
(    )59.5 552.4 ms
0 0.498 0.498 r
(else)s
0 g
(:)s
(        )59.5 542.4 ms
F1 sf
0.498 0.498 0 r
(print)s
F0 sf
0 g
(\()s
0.498 0.125 0.498 r
("Sorry, file does not exist on the server")s
0 g
(\))s
(        s.close\(\))59.5 532.4 ms
(        sys.exit\(\))59.5 522.4 ms
(    )59.5 512.4 ms
F1 sf
0.498 0.498 0 r
(print)s
F0 sf
0 g
(\()s
0.498 0.125 0.498 r
("File transfer completed, have a nice day")s
0 g
(\))s
(    s.close\(\))59.5 502.4 ms
(    )59.5 492.4 ms
0 0.498 0.498 r
(def)59.5 482.4 ms
0 g
( )s
F1 sf
0.498 0.498 0 r
(run)s
F0 sf
0 g
(\(\):)s
(    ip, port, fileName = argumentGetter\(\))59.5 472.4 ms
(    portIp = checkIp\(ip, port\))59.5 462.4 ms
(    checkPortandfile\(port, fileName\))59.5 452.4 ms
(    s = createConnect\(portIp\))59.5 442.4 ms
(    makeFileRequest\(fileName, s\))59.5 432.4 ms
(    statusCode, fileDataLen = receiveResponse\(s\))59.5 422.4 ms
(    writeDataResponse\(s, statusCode, fileName, fileDataLen\))59.5 412.4 ms
(run\(\))59.5 402.4 ms
re sp
%%PageTrailer
%%Trailer
%%Pages: 2
%%EOF
