Countdown Chicken Nibbles Nice & Spicy min order 850g per kg,14.0,8.0,1.0,"6.00 off, 1.75% markdown"
Countdown Chicken Nibbles Nz Small Pk min order 650g per kg,14.0,8.0,1.0,"6.00 off, 1.75% markdown"
Hellers Sausages Precooked prepacked 1kg,11.0,6.666666666666667,3.0,"4.33 off, 1.65% markdown"
Countdown Chicken Drumsticks Value Large Pk min order 500g per kg,8.0,5.0,1.0,"3.00 off, 1.60% markdown"
Countdown Chicken Drumsticks Nz Small Pk min order 1.1kg per kg,8.0,5.0,1.0,"3.00 off, 1.60% markdown"
Countdown Sausages Pork Flavoured 20pk,16.0,10.0,1.0,"6.00 off, 1.60% markdown"
Countdown Sausages Beef Flavoured 20pk,16.0,10.0,1.0,"6.00 off, 1.60% markdown"
Countdown Free Farmed Pork Chops Shoulder Bbq min order 1kg per kg,18.5,12.0,1.0,"6.50 off, 1.54% markdown"
Countdown Free Farmed Pork Chops Shoulder min order 800g per kg,18.5,12.0,1.0,"6.50 off, 1.54% markdown"
Countdown Beef Silverside Corned min order 1.5kg per kg,12.0,8.0,1.0,"4.00 off, 1.50% markdown"
Inghams Chicken Mince 500g,10.0,6.666666666666667,3.0,"3.33 off, 1.50% markdown"
Countdown Free Farmed Pork Cutlets Nz Trim Pork min order 800g per kg,30.0,20.0,1.0,"10.00 off, 1.50% markdown"
Countdown Burger Patties Mexican Beef 400g 4pk,10.0,6.666666666666667,3.0,"3.33 off, 1.50% markdown"
Countdown Burger Patties Prime 400g 4pk,10.0,6.666666666666667,3.0,"3.33 off, 1.50% markdown"
Countdown Meatballs Bestest Beef 400g,10.0,6.666666666666667,3.0,"3.33 off, 1.50% markdown"
Countdown Sausages Alpine Pork prepacked 6pk,10.0,6.666666666666667,3.0,"3.33 off, 1.50% markdown"
Countdown Sausages Chorizo prepacked 6pk,10.0,6.666666666666667,3.0,"3.33 off, 1.50% markdown"
Countdown Sausages Traditional Beef & Cheese prepacked 6pk,10.0,6.666666666666667,3.0,"3.33 off, 1.50% markdown"
Countdown Sausages Traditional Beef 6pk,10.0,6.666666666666667,3.0,"3.33 off, 1.50% markdown"
Countdown Chicken Thighs Skinless Cutlets Small Tray min order 900g per kg,16.0,11.0,1.0,"5.00 off, 1.45% markdown"
Countdown Chicken Thighs Cutlets Medium Pack min order 1.1kg per kg,16.0,11.0,1.0,"5.00 off, 1.45% markdown"
Countdown Free Farmed Pork Chops Loin Medium Tray min order 380g per kg,20.0,14.0,1.0,"6.00 off, 1.43% markdown"
Countdown Free Farmed Pork Chops Loin Large Tray min order 750g per kg,20.0,14.0,1.0,"6.00 off, 1.43% markdown"
Countdown Free Farmed Pork Boneless Leg & Shoulder Vacuum Packed min order 1.3kg per kg,17.0,12.0,1.0,"5.00 off, 1.42% markdown"
Countdown Oven Ready Chicken Whole Sage & Onion each 1.5kg,15.0,11.0,1.0,"4.00 off, 1.36% markdown"
Countdown Oven Ready Chicken Whole Country Style each 1.5kg,15.0,11.0,1.0,"4.00 off, 1.36% markdown"
Countdown Beef Mince Premium Angus 350g,9.0,6.666666666666667,3.0,"2.33 off, 1.35% markdown"
Tegel Chicken Kebabs Satay 480g 8pk,9.0,6.666666666666667,3.0,"2.33 off, 1.35% markdown"
Tegel Chicken Tenders Satay 360g 6pk,9.0,6.666666666666667,3.0,"2.33 off, 1.35% markdown"
Countdown Lamb Chops Loin Medium Tray min order 500g per kg,32.0,24.0,1.0,"8.00 off, 1.33% markdown"
Countdown Lamb Chops Loin Small Tray min order 500g per kg,32.0,24.0,1.0,"8.00 off, 1.33% markdown"
Countdown Beef Frying T-bone Steak Medium Tray min order 700g per kg,28.99,22.0,1.0,"6.99 off, 1.32% markdown"
Countdown Lamb Leg Frozen Bone In min order 2kg,18.0,14.0,1.0,"4.00 off, 1.29% markdown"
Tegel Quick Cook Chicken Bites 300g,8.5,6.666666666666667,3.0,"1.83 off, 1.27% markdown"
Tegel Quick Cook Chicken Burgers Crunchy 350g 4pk,8.5,6.666666666666667,3.0,"1.83 off, 1.27% markdown"
Tegel Chicken Kebabs Free Range Chilli & Lime 5pk,8.5,6.666666666666667,3.0,"1.83 off, 1.27% markdown"
Tegel Quick Cook Chicken Nuggets Tempura Battered 400g,8.5,6.666666666666667,3.0,"1.83 off, 1.27% markdown"
Tegel Quick Cook Chicken Steaks Chargrilled 375g 4pk,8.5,6.666666666666667,3.0,"1.83 off, 1.27% markdown"
Tegel Quick Cook Chicken Tenders Southern Style 310g,8.5,6.666666666666667,3.0,"1.83 off, 1.27% markdown"
Macro Free Range Chicken Stir Fry 450g,12.5,10.0,1.0,"2.50 off, 1.25% markdown"
Countdown Free Farmed Pork Belly Boneless Medium Tray min order 800g per kg,25.0,20.0,1.0,"5.00 off, 1.25% markdown"
Countdown Free Farmed Pork Slices Boneless Medium Tray min order 600g per kg,25.0,20.0,1.0,"5.00 off, 1.25% markdown"
Countdown Lamb Knuckles Gourmet 2 Pce Vac Pack min order 700g per kg,21.99,18.0,1.0,"3.99 off, 1.22% markdown"
Countdown Lamb Chops Shoulder Bbq 2 Piece min order 500g per kg,19.5,16.0,1.0,"3.50 off, 1.22% markdown"
Countdown Lamb Chops Shoulder Marinated min order 500g per kg,19.5,16.0,1.0,"3.50 off, 1.22% markdown"
Countdown Beef Mince Value 500g,8.0,6.666666666666667,3.0,"1.33 off, 1.20% markdown"
Tegel Ready Wrap Chicken Enchiladas Mexican 5pk,12.0,10.0,1.0,"2.00 off, 1.20% markdown"
Macro Free Range Chicken Nibbles 450g,8.0,6.666666666666667,3.0,"1.33 off, 1.20% markdown"
Countdown Beef Frying Angus Sirloin min order 500g per kg,45.0,38.0,1.0,"7.00 off, 1.18% markdown"
Countdown Sausages Pork Flavoured prepacked 9pk,10.0,8.5,1.0,"1.50 off, 1.18% markdown"
Countdown Sausages Beef Flavoured 9pk,10.0,8.5,1.0,"1.50 off, 1.18% markdown"
Countdown Beef Diced min order 650g per kg,27.0,23.0,1.0,"4.00 off, 1.17% markdown"
Countdown Beef Stir Fry Premium min order 200g per kg,27.0,23.0,1.0,"4.00 off, 1.17% markdown"
Silver Fern Farms Venison Mince 500g,11.5,10.0,1.0,"1.50 off, 1.15% markdown"
Beak & Sons Pork Belly Smoky Maple 600g,16.0,14.0,1.0,"2.00 off, 1.14% markdown"
Beak & Sons Ready To Pull Pork Pulled In Apple Bbq Sauce 600g,16.0,14.0,1.0,"2.00 off, 1.14% markdown"
Macro Free Range Chicken Thighs Fillets min order 500g per kg,25.0,22.0,1.0,"3.00 off, 1.14% markdown"
Silver Fern Farms Lamb Rump each 400g,17.5,15.5,1.0,"2.00 off, 1.13% markdown"
Beak & Sons Beef Brisket Bourbon prepacked 600g,15.79,14.0,1.0,"1.79 off, 1.13% markdown"
Countdown Beef Roast Rib Vac Pak Medium Pk min order 900g per kg,20.0,18.0,1.0,"2.00 off, 1.11% markdown"
Countdown Chicken Legs Whole Nz Large Pk min order 1.4kg 4 pieces,10.0,9.0,1.0,"1.00 off, 1.11% markdown"
Beehive Sausages Lamb Mint & Pea 450g,10.0,9.0,1.0,"1.00 off, 1.11% markdown"
Top Hat Sausages Precooked 3.6kg 50pk,20.0,18.0,1.0,"2.00 off, 1.11% markdown"
Beehive Sausages Beef & Beetroot 450g,10.0,9.0,1.0,"1.00 off, 1.11% markdown"
Bean Supreme Vegetarian Sausages Tomato & Basil 375g 6pk,8.3,7.5,1.0,"0.80 off, 1.11% markdown"
Countdown Sausages Traditional Lamb prepacked 6pk,10.5,9.5,1.0,"1.00 off, 1.11% markdown"
Tony's Burger Patties Bbq Beef 46pk,22.0,20.0,1.0,"2.00 off, 1.10% markdown"
Countdown Sausages Smokey Angus Beef 420g,11.0,10.0,1.0,"1.00 off, 1.10% markdown"
Countdown Sausages Lamb & Rosemary 420g,11.0,10.0,1.0,"1.00 off, 1.10% markdown"
Countdown Sausages Angus Beef & Ale 420g,11.0,10.0,1.0,"1.00 off, 1.10% markdown"
Al Brown & Co Meatballs Angus 490g 14pk,11.5,10.5,1.0,"1.00 off, 1.10% markdown"
Silver Fern Farms Venison Roast 400g,18.0,16.5,1.0,"1.50 off, 1.09% markdown"
Silver Fern Farms Beef Frying Flat Iron Steak 220g,13.0,12.0,1.0,"1.00 off, 1.08% markdown"
Hellers Cocktail Sausages 500g,7.0,6.5,1.0,"0.50 off, 1.08% markdown"
Hellers Frankfurters 500g,7.0,6.5,1.0,"0.50 off, 1.08% markdown"
Hellers Saveloys Classic 500g,7.0,6.5,1.0,"0.50 off, 1.08% markdown"
Hellers Saveloys Smoked 500g,7.0,6.5,1.0,"0.50 off, 1.08% markdown"
Countdown Beef Diced Angus min order 600g per kg,30.0,28.0,1.0,"2.00 off, 1.07% markdown"
Countdown Beef Frying Angus Stir Fry min order 500g per kg,30.0,28.0,1.0,"2.00 off, 1.07% markdown"
Waitoa Free Range Chicken Whole Homestyle & Garden Herbs each 1.6kg,16.0,15.0,1.0,"1.00 off, 1.07% markdown"
Funky Fields Plant Based Mince 400g,10.0,9.5,1.0,"0.50 off, 1.05% markdown"
Countdown Beef Mince Premium 500g pack,11.0,10.5,1.0,"0.50 off, 1.05% markdown"
Hellers Free Farmed Sausages Country Pork 6pk,11.5,11.0,1.0,"0.50 off, 1.05% markdown"
Hellers Free Farmed Sausages Breakfast Country Pork 10pk,11.5,11.0,1.0,"0.50 off, 1.05% markdown"
Countdown Beef Frying Scotch Fillet Large Tray per kg,37.5,36.0,1.0,"1.50 off, 1.04% markdown"
Countdown Beef Frying Scotch Fillet Small Tray min order 500g per kg,37.5,36.0,1.0,"1.50 off, 1.04% markdown"
Countdown Beef Mince Prime min order 550g per kg,17.5,17.0,1.0,"0.50 off, 1.03% markdown"
Countdown Beef Mince Prime Large Tray 700g min order per kg,17.5,17.0,1.0,"0.50 off, 1.03% markdown"
Countdown Chicken Nibbles Nice & Spicy min order 850g per kg,14.0,8.0,1.0,"6.00 off, 1.75% markdown"
Countdown Chicken Nibbles Nz Small Pk min order 650g per kg,14.0,8.0,1.0,"6.00 off, 1.75% markdown"
Hellers Sausages Precooked prepacked 1kg,11.0,6.666666666666667,3.0,"4.33 off, 1.65% markdown"
Countdown Chicken Drumsticks Value Large Pk min order 500g per kg,8.0,5.0,1.0,"3.00 off, 1.60% markdown"
Countdown Chicken Drumsticks Nz Small Pk min order 1.1kg per kg,8.0,5.0,1.0,"3.00 off, 1.60% markdown"
Countdown Sausages Pork Flavoured 20pk,16.0,10.0,1.0,"6.00 off, 1.60% markdown"
Countdown Sausages Beef Flavoured 20pk,16.0,10.0,1.0,"6.00 off, 1.60% markdown"
Countdown Free Farmed Pork Chops Shoulder Bbq min order 1kg per kg,18.5,12.0,1.0,"6.50 off, 1.54% markdown"
Countdown Free Farmed Pork Chops Shoulder min order 800g per kg,18.5,12.0,1.0,"6.50 off, 1.54% markdown"
Countdown Beef Silverside Corned min order 1.5kg per kg,12.0,8.0,1.0,"4.00 off, 1.50% markdown"
Inghams Chicken Mince 500g,10.0,6.666666666666667,3.0,"3.33 off, 1.50% markdown"
Countdown Free Farmed Pork Cutlets Nz Trim Pork min order 800g per kg,30.0,20.0,1.0,"10.00 off, 1.50% markdown"
Countdown Burger Patties Mexican Beef 400g 4pk,10.0,6.666666666666667,3.0,"3.33 off, 1.50% markdown"
Countdown Burger Patties Prime 400g 4pk,10.0,6.666666666666667,3.0,"3.33 off, 1.50% markdown"
Countdown Meatballs Bestest Beef 400g,10.0,6.666666666666667,3.0,"3.33 off, 1.50% markdown"
Countdown Sausages Alpine Pork prepacked 6pk,10.0,6.666666666666667,3.0,"3.33 off, 1.50% markdown"
Countdown Sausages Chorizo prepacked 6pk,10.0,6.666666666666667,3.0,"3.33 off, 1.50% markdown"
Countdown Sausages Traditional Beef & Cheese prepacked 6pk,10.0,6.666666666666667,3.0,"3.33 off, 1.50% markdown"
Countdown Sausages Traditional Beef 6pk,10.0,6.666666666666667,3.0,"3.33 off, 1.50% markdown"
Countdown Chicken Thighs Skinless Cutlets Small Tray min order 900g per kg,16.0,11.0,1.0,"5.00 off, 1.45% markdown"
Countdown Chicken Thighs Cutlets Medium Pack min order 1.1kg per kg,16.0,11.0,1.0,"5.00 off, 1.45% markdown"
Countdown Free Farmed Pork Chops Loin Medium Tray min order 380g per kg,20.0,14.0,1.0,"6.00 off, 1.43% markdown"
Countdown Free Farmed Pork Chops Loin Large Tray min order 750g per kg,20.0,14.0,1.0,"6.00 off, 1.43% markdown"
Countdown Free Farmed Pork Boneless Leg & Shoulder Vacuum Packed min order 1.3kg per kg,17.0,12.0,1.0,"5.00 off, 1.42% markdown"
Countdown Oven Ready Chicken Whole Sage & Onion each 1.5kg,15.0,11.0,1.0,"4.00 off, 1.36% markdown"
Countdown Oven Ready Chicken Whole Country Style each 1.5kg,15.0,11.0,1.0,"4.00 off, 1.36% markdown"
Countdown Beef Mince Premium Angus 350g,9.0,6.666666666666667,3.0,"2.33 off, 1.35% markdown"
Tegel Chicken Kebabs Satay 480g 8pk,9.0,6.666666666666667,3.0,"2.33 off, 1.35% markdown"
Tegel Chicken Tenders Satay 360g 6pk,9.0,6.666666666666667,3.0,"2.33 off, 1.35% markdown"
Countdown Lamb Chops Loin Medium Tray min order 500g per kg,32.0,24.0,1.0,"8.00 off, 1.33% markdown"
Countdown Lamb Chops Loin Small Tray min order 500g per kg,32.0,24.0,1.0,"8.00 off, 1.33% markdown"
Countdown Beef Frying T-bone Steak Medium Tray min order 700g per kg,28.99,22.0,1.0,"6.99 off, 1.32% markdown"
Countdown Lamb Leg Frozen Bone In min order 2kg,18.0,14.0,1.0,"4.00 off, 1.29% markdown"
Tegel Quick Cook Chicken Bites 300g,8.5,6.666666666666667,3.0,"1.83 off, 1.27% markdown"
Tegel Quick Cook Chicken Burgers Crunchy 350g 4pk,8.5,6.666666666666667,3.0,"1.83 off, 1.27% markdown"
Tegel Chicken Kebabs Free Range Chilli & Lime 5pk,8.5,6.666666666666667,3.0,"1.83 off, 1.27% markdown"
Tegel Quick Cook Chicken Nuggets Tempura Battered 400g,8.5,6.666666666666667,3.0,"1.83 off, 1.27% markdown"
Tegel Quick Cook Chicken Steaks Chargrilled 375g 4pk,8.5,6.666666666666667,3.0,"1.83 off, 1.27% markdown"
Tegel Quick Cook Chicken Tenders Southern Style 310g,8.5,6.666666666666667,3.0,"1.83 off, 1.27% markdown"
Macro Free Range Chicken Stir Fry 450g,12.5,10.0,1.0,"2.50 off, 1.25% markdown"
Countdown Free Farmed Pork Belly Boneless Medium Tray min order 800g per kg,25.0,20.0,1.0,"5.00 off, 1.25% markdown"
Countdown Free Farmed Pork Slices Boneless Medium Tray min order 600g per kg,25.0,20.0,1.0,"5.00 off, 1.25% markdown"
Countdown Lamb Knuckles Gourmet 2 Pce Vac Pack min order 700g per kg,21.99,18.0,1.0,"3.99 off, 1.22% markdown"
Countdown Lamb Chops Shoulder Bbq 2 Piece min order 500g per kg,19.5,16.0,1.0,"3.50 off, 1.22% markdown"
Countdown Lamb Chops Shoulder Marinated min order 500g per kg,19.5,16.0,1.0,"3.50 off, 1.22% markdown"
Countdown Beef Mince Value 500g,8.0,6.666666666666667,3.0,"1.33 off, 1.20% markdown"
Tegel Ready Wrap Chicken Enchiladas Mexican 5pk,12.0,10.0,1.0,"2.00 off, 1.20% markdown"
Macro Free Range Chicken Nibbles 450g,8.0,6.666666666666667,3.0,"1.33 off, 1.20% markdown"
Countdown Beef Frying Angus Sirloin min order 500g per kg,45.0,38.0,1.0,"7.00 off, 1.18% markdown"
Countdown Sausages Pork Flavoured prepacked 9pk,10.0,8.5,1.0,"1.50 off, 1.18% markdown"
Countdown Sausages Beef Flavoured 9pk,10.0,8.5,1.0,"1.50 off, 1.18% markdown"
Countdown Beef Diced min order 650g per kg,27.0,23.0,1.0,"4.00 off, 1.17% markdown"
Countdown Beef Stir Fry Premium min order 200g per kg,27.0,23.0,1.0,"4.00 off, 1.17% markdown"
Silver Fern Farms Venison Mince 500g,11.5,10.0,1.0,"1.50 off, 1.15% markdown"
Beak & Sons Pork Belly Smoky Maple 600g,16.0,14.0,1.0,"2.00 off, 1.14% markdown"
Beak & Sons Ready To Pull Pork Pulled In Apple Bbq Sauce 600g,16.0,14.0,1.0,"2.00 off, 1.14% markdown"
Macro Free Range Chicken Thighs Fillets min order 500g per kg,25.0,22.0,1.0,"3.00 off, 1.14% markdown"
Silver Fern Farms Lamb Rump each 400g,17.5,15.5,1.0,"2.00 off, 1.13% markdown"
Beak & Sons Beef Brisket Bourbon prepacked 600g,15.79,14.0,1.0,"1.79 off, 1.13% markdown"
Countdown Beef Roast Rib Vac Pak Medium Pk min order 900g per kg,20.0,18.0,1.0,"2.00 off, 1.11% markdown"
Countdown Chicken Legs Whole Nz Large Pk min order 1.4kg 4 pieces,10.0,9.0,1.0,"1.00 off, 1.11% markdown"
Beehive Sausages Lamb Mint & Pea 450g,10.0,9.0,1.0,"1.00 off, 1.11% markdown"
Top Hat Sausages Precooked 3.6kg 50pk,20.0,18.0,1.0,"2.00 off, 1.11% markdown"
Beehive Sausages Beef & Beetroot 450g,10.0,9.0,1.0,"1.00 off, 1.11% markdown"
Bean Supreme Vegetarian Sausages Tomato & Basil 375g 6pk,8.3,7.5,1.0,"0.80 off, 1.11% markdown"
Countdown Sausages Traditional Lamb prepacked 6pk,10.5,9.5,1.0,"1.00 off, 1.11% markdown"
Tony's Burger Patties Bbq Beef 46pk,22.0,20.0,1.0,"2.00 off, 1.10% markdown"
Countdown Sausages Smokey Angus Beef 420g,11.0,10.0,1.0,"1.00 off, 1.10% markdown"
Countdown Sausages Lamb & Rosemary 420g,11.0,10.0,1.0,"1.00 off, 1.10% markdown"
Countdown Sausages Angus Beef & Ale 420g,11.0,10.0,1.0,"1.00 off, 1.10% markdown"
Al Brown & Co Meatballs Angus 490g 14pk,11.5,10.5,1.0,"1.00 off, 1.10% markdown"
Silver Fern Farms Venison Roast 400g,18.0,16.5,1.0,"1.50 off, 1.09% markdown"
Silver Fern Farms Beef Frying Flat Iron Steak 220g,13.0,12.0,1.0,"1.00 off, 1.08% markdown"
Hellers Cocktail Sausages 500g,7.0,6.5,1.0,"0.50 off, 1.08% markdown"
Hellers Frankfurters 500g,7.0,6.5,1.0,"0.50 off, 1.08% markdown"
Hellers Saveloys Classic 500g,7.0,6.5,1.0,"0.50 off, 1.08% markdown"
Hellers Saveloys Smoked 500g,7.0,6.5,1.0,"0.50 off, 1.08% markdown"
Countdown Beef Diced Angus min order 600g per kg,30.0,28.0,1.0,"2.00 off, 1.07% markdown"
Countdown Beef Frying Angus Stir Fry min order 500g per kg,30.0,28.0,1.0,"2.00 off, 1.07% markdown"
Waitoa Free Range Chicken Whole Homestyle & Garden Herbs each 1.6kg,16.0,15.0,1.0,"1.00 off, 1.07% markdown"
Funky Fields Plant Based Mince 400g,10.0,9.5,1.0,"0.50 off, 1.05% markdown"
Countdown Beef Mince Premium 500g pack,11.0,10.5,1.0,"0.50 off, 1.05% markdown"
Hellers Free Farmed Sausages Country Pork 6pk,11.5,11.0,1.0,"0.50 off, 1.05% markdown"
Hellers Free Farmed Sausages Breakfast Country Pork 10pk,11.5,11.0,1.0,"0.50 off, 1.05% markdown"
Countdown Beef Frying Scotch Fillet Large Tray per kg,37.5,36.0,1.0,"1.50 off, 1.04% markdown"
Countdown Beef Frying Scotch Fillet Small Tray min order 500g per kg,37.5,36.0,1.0,"1.50 off, 1.04% markdown"
Countdown Beef Mince Prime min order 550g per kg,17.5,17.0,1.0,"0.50 off, 1.03% markdown"
Countdown Beef Mince Prime Large Tray 700g min order per kg,17.5,17.0,1.0,"0.50 off, 1.03% markdown"
